<?xml version="1.0" encoding="iso-8859-1"?>
<!-- Generator: Adobe Illustrator 18.0.0, SVG Export Plug-In . SVG Version: 6.00 Build 0)  -->
<!DOCTYPE svg PUBLIC "-//W3C//DTD SVG 1.1//EN" "http://www.w3.org/Graphics/SVG/1.1/DTD/svg11.dtd">
<svg version="1.1" id="Capa_1" xmlns="http://www.w3.org/2000/svg" xmlns:xlink="http://www.w3.org/1999/xlink" x="0px" y="0px"
	 viewBox="0 0 184 184" style="enable-background:new 0 0 184 184;" xml:space="preserve">
<g>
	<path style="fill:#eee6e6;" d="M180.891,19.03c-1.952-1.41-4.463-1.797-6.75-1.039L134.25,31.21L94.359,17.992
		c-1.531-0.508-3.187-0.508-4.718,0L49.751,31.21L9.859,17.992c-2.287-0.758-4.796-0.372-6.75,1.039C1.157,20.441,0,22.702,0,25.111
		v119.778c0,3.233,2.072,6.103,5.141,7.119l42.251,14c0.009,0.003,0.019,0.004,0.028,0.007c0.34,0.111,0.691,0.195,1.05,0.257
		c0.068,0.012,0.135,0.021,0.203,0.031c0.353,0.051,0.711,0.086,1.078,0.086s0.725-0.035,1.078-0.086
		c0.068-0.01,0.136-0.019,0.203-0.031c0.359-0.062,0.71-0.146,1.05-0.257c0.009-0.003,0.019-0.004,0.028-0.007L92,152.79
		l39.891,13.218c0.766,0.254,1.562,0.381,2.359,0.381c0.796,0,1.593-0.127,2.359-0.381l42.25-14
		c3.069-1.017,5.141-3.886,5.141-7.119V25.111C184,22.702,182.843,20.441,180.891,19.03z M57.251,44.527L84.5,35.497v103.977
		l-27.249,9.029V44.527z M99.5,35.497l27.25,9.029v103.977l-27.25-9.029V35.497z M15,35.497l27.251,9.029v103.977L15,139.473V35.497
		z M169,139.473l-27.25,9.03V44.527L169,35.497V139.473z"/>
</g>
<g>
</g>
<g>
</g>
<g>
</g>
<g>
</g>
<g>
</g>
<g>
</g>
<g>
</g>
<g>
</g>
<g>
</g>
<g>
</g>
<g>
</g>
<g>
</g>
<g>
</g>
<g>
</g>
<g>
</g>
</svg>
